\relax 
\providecommand\hyper@newdestlabel[2]{}
\providecommand\HyperFirstAtBeginDocument{\AtBeginDocument}
\HyperFirstAtBeginDocument{\ifx\hyper@anchor\@undefined
\global\let\oldcontentsline\contentsline
\gdef\contentsline#1#2#3#4{\oldcontentsline{#1}{#2}{#3}}
\global\let\oldnewlabel\newlabel
\gdef\newlabel#1#2{\newlabelxx{#1}#2}
\gdef\newlabelxx#1#2#3#4#5#6{\oldnewlabel{#1}{{#2}{#3}}}
\AtEndDocument{\ifx\hyper@anchor\@undefined
\let\contentsline\oldcontentsline
\let\newlabel\oldnewlabel
\fi}
\fi}
\global\let\hyper@last\relax 
\gdef\HyperFirstAtBeginDocument#1{#1}
\providecommand\HyField@AuxAddToFields[1]{}
\providecommand\HyField@AuxAddToCoFields[2]{}
\citation{nlo_using_eit}
\citation{eit_review}
\citation{eit_review}
\citation{eit_review}
\citation{eit_review}
\newlabel{FirstPage}{{}{1}{}{section*.1}{}}
\@writefile{toc}{\contentsline {title}{ Electromagnetically induced transparency \\ A review into its concepts and applications }{1}{section*.2}}
\@writefile{toc}{\contentsline {abstract}{Abstract}{1}{section*.1}}
\@writefile{toc}{\contentsline {section}{\numberline {I}Introduction}{1}{section*.3}}
\citation{slowlight_dyamics}
\citation{applications_eit_qi}
\@writefile{lof}{\contentsline {figure}{\numberline {1}{\ignorespaces Schematic representation of the media's linear susceptibility ($\chi ^\textsubscript  {(1)}$) dependency on the probe's detuning. (source: \cite  {eit_review})}}{2}{figure.1}}
\newlabel{fig:absorption}{{1}{2}{Schematic representation of the media's linear susceptibility ($\chi ^\textsubscript {(1)}$) dependency on the probe's detuning. (source: \cite {eit_review})}{figure.1}{}}
\@writefile{lof}{\contentsline {figure}{\numberline {2}{\ignorespaces Schematic representation of the media's third-order susceptibility amplitude ($|\chi ^\textsubscript  {(3)}|$) dependency on the probe's detuning. (source: \cite  {eit_review})}}{2}{figure.2}}
\newlabel{fig:chi3}{{2}{2}{Schematic representation of the media's third-order susceptibility amplitude ($|\chi ^\textsubscript {(3)}|$) dependency on the probe's detuning. (source: \cite {eit_review})}{figure.2}{}}
\newlabel{sec:PHYSMODELS}{{II}{2}{}{section*.4}{}}
\@writefile{toc}{\contentsline {section}{\numberline {II}Physical Models}{2}{section*.4}}
\newlabel{sec:DENSOP}{{II\tmspace  +\thinmuskip {.1667em}A}{2}{}{section*.5}{}}
\@writefile{toc}{\contentsline {subsection}{\numberline {A}Density Operator and Coherence}{2}{section*.5}}
\newlabel{sec:2LEVEL}{{II\tmspace  +\thinmuskip {.1667em}B}{3}{}{section*.6}{}}
\@writefile{toc}{\contentsline {subsection}{\numberline {B}Two Level Systems}{3}{section*.6}}
\newlabel{eq:C1}{{7}{3}{}{equation.2.7}{}}
\newlabel{eq:C2}{{8}{3}{}{equation.2.8}{}}
\newlabel{eq:RABILO}{{9}{3}{}{equation.2.9}{}}
\newlabel{eq:dcdt}{{10}{3}{}{equation.2.10}{}}
\newlabel{eq:d2level}{{11}{3}{}{equation.2.11}{}}
\citation{eit_review}
\citation{eit_review}
\newlabel{eq:d2level}{{15}{4}{}{equation.2.15}{}}
\newlabel{eq:GENERALRHO}{{17}{4}{}{equation.2.17}{}}
\newlabel{eq:masterequation}{{19}{4}{}{equation.2.19}{}}
\newlabel{sec:3LEVEL}{{II\tmspace  +\thinmuskip {.1667em}C}{4}{}{section*.7}{}}
\@writefile{toc}{\contentsline {subsection}{\numberline {C}Three Level Systems}{4}{section*.7}}
\newlabel{sec:DARKSTATE}{{II\tmspace  +\thinmuskip {.1667em}C\tmspace  +\thinmuskip {.1667em}1}{4}{}{section*.8}{}}
\@writefile{toc}{\contentsline {subsubsection}{\numberline {1}Dark states in $\Lambda -type$ systems}{4}{section*.8}}
\@writefile{lof}{\contentsline {figure}{\numberline {3}{\ignorespaces Schematic representation of a $Ladder-type$ atom system. $\omega _p$ and $\omega _c$ are the probe and control fields frequencies, respectively. $\Delta 1=\omega _\textsubscript  {31}-\omega _p$ and $\Delta 2=\omega _\textsubscript  {32}-\omega _c$ represent the detuning between the probe / control field and the transition between levels $3-1$ / $3-2$ resonance. The terms $\gamma _\textsubscript  {31}$ and $\gamma _\textsubscript  {32}$ correspond to the decay rates between the respective levels.}}{5}{figure.3}}
\newlabel{fig:ladder_type_system}{{3}{5}{Schematic representation of a $Ladder-type$ atom system. $\omega _p$ and $\omega _c$ are the probe and control fields frequencies, respectively. $\Delta 1=\omega _\textsubscript {31}-\omega _p$ and $\Delta 2=\omega _\textsubscript {32}-\omega _c$ represent the detuning between the probe / control field and the transition between levels $3-1$ / $3-2$ resonance. The terms $\gamma _\textsubscript {31}$ and $\gamma _\textsubscript {32}$ correspond to the decay rates between the respective levels}{figure.3}{}}
\@writefile{lof}{\contentsline {figure}{\numberline {4}{\ignorespaces Schematic representation of a $\Lambda -type$ atom system. $\omega _p$ and $\omega _c$ are the probe and control fields frequencies, respectively. $\Delta 1=\omega _\textsubscript  {31}-\omega _p$ and $\Delta 2=\omega _\textsubscript  {32}-\omega _c$ represent the detuning between the probe / control field and the transition between levels $3-1$ / $3-2$ resonance. The terms $\Gamma _\textsubscript  {31}$ and $\Gamma _\textsubscript  {32}$ correspond to the decay rates between the respective levels. (source: \cite  {eit_review})}}{5}{figure.4}}
\newlabel{fig:lambda_type_system}{{4}{5}{Schematic representation of a $\Lambda -type$ atom system. $\omega _p$ and $\omega _c$ are the probe and control fields frequencies, respectively. $\Delta 1=\omega _\textsubscript {31}-\omega _p$ and $\Delta 2=\omega _\textsubscript {32}-\omega _c$ represent the detuning between the probe / control field and the transition between levels $3-1$ / $3-2$ resonance. The terms $\Gamma _\textsubscript {31}$ and $\Gamma _\textsubscript {32}$ correspond to the decay rates between the respective levels. (source: \cite {eit_review})}{figure.4}{}}
\@writefile{lof}{\contentsline {figure}{\numberline {5}{\ignorespaces Schematic representation of a $V-type$ atom system. This system is very similar to the $\Lambda -type$ (figure \ref  {fig:lambda_type_system}) but instead of the higher energy level being coupled with the other levels, here the lower energy level is coupled with the other two and there is no coupling between the last.}}{5}{figure.5}}
\newlabel{fig:v_type_system}{{5}{5}{Schematic representation of a $V-type$ atom system. This system is very similar to the $\Lambda -type$ (figure \ref {fig:lambda_type_system}) but instead of the higher energy level being coupled with the other levels, here the lower energy level is coupled with the other two and there is no coupling between the last}{figure.5}{}}
\newlabel{eq:HI_DARKSTATES}{{25}{5}{}{equation.2.25}{}}
\newlabel{eq:a0}{{26}{5}{}{equation.2.26}{}}
\newlabel{eq:a+}{{27}{5}{}{equation.2.27}{}}
\newlabel{eq:a-}{{28}{5}{}{equation.2.28}{}}
\newlabel{eq:darkstate_theta}{{29}{5}{}{equation.2.29}{}}
\newlabel{eq:darkstate_phi}{{30}{5}{}{equation.2.30}{}}
\citation{eit_review}
\citation{eit_review}
\newlabel{sec:3LEVELEIT}{{II\tmspace  +\thinmuskip {.1667em}C\tmspace  +\thinmuskip {.1667em}2}{6}{}{section*.9}{}}
\@writefile{toc}{\contentsline {subsubsection}{\numberline {2} Electromagnetically induced transparency in $\Lambda -type$ systems}{6}{section*.9}}
\newlabel{eq:waveequation}{{31}{6}{}{equation.2.31}{}}
\newlabel{eq:EITHamil}{{32}{6}{}{equation.2.32}{}}
\newlabel{eq:pol}{{36}{6}{}{equation.2.36}{}}
\newlabel{eq:linearsuscept}{{37}{6}{}{equation.2.37}{}}
\@writefile{lof}{\contentsline {figure}{\numberline {6}{\ignorespaces EIT absorption spectrum for different values of coupling field and $\gamma _\textsubscript  {21}=0$: (a) $|\Omega _c|=0.3 \gamma _\textsubscript  {31}$; (b) $|\Omega _c|=2 \gamma _\textsubscript  {31}$ (source: \cite  {eit_review})}}{7}{figure.6}}
\newlabel{fig:EITRESULTS}{{6}{7}{EIT absorption spectrum for different values of coupling field and $\gamma _\textsubscript {21}=0$: (a) $|\Omega _c|=0.3 \gamma _\textsubscript {31}$; (b) $|\Omega _c|=2 \gamma _\textsubscript {31}$ (source: \cite {eit_review})}{figure.6}{}}
\newlabel{sec:KERR}{{II\tmspace  +\thinmuskip {.1667em}C\tmspace  +\thinmuskip {.1667em}3}{7}{}{section*.10}{}}
\@writefile{toc}{\contentsline {subsubsection}{\numberline {3} Enhancement of Kerr nonlinearities}{7}{section*.10}}
\newlabel{eq:eff_hamil}{{38}{7}{}{equation.2.38}{}}
\newlabel{eq:Rabi_eff}{{39}{7}{}{equation.2.39}{}}
\newlabel{eq:final_eff_hamil}{{40}{7}{}{equation.2.40}{}}
\newlabel{eq:genpol}{{41}{7}{}{equation.2.41}{}}
\newlabel{eq:CHI3}{{42}{7}{}{equation.2.42}{}}
\newlabel{sec:ADIABAICPREP}{{III}{7}{}{section*.11}{}}
\@writefile{toc}{\contentsline {section}{\numberline {III} Dark State Adiabatic Preparation}{7}{section*.11}}
\citation{EIT_prep_energy}
\newlabel{eq:hamil_RWA}{{43}{8}{}{equation.3.43}{}}
\newlabel{eq:hamil_RWA}{{44}{8}{}{equation.3.44}{}}
\newlabel{sec:SLOWLIGHT}{{IV}{8}{}{section*.12}{}}
\@writefile{toc}{\contentsline {section}{\numberline {IV}Application to Slow Light}{8}{section*.12}}
\newlabel{eq:realchi}{{49}{8}{}{equation.4.49}{}}
\citation{new_mechanisms_for_laser_cooling}
\citation{numerical_3level_eit_slowlight}
\citation{numerical_3level_eit_slowlight}
\newlabel{sec:SIMULATION}{{V}{9}{}{section*.13}{}}
\@writefile{toc}{\contentsline {section}{\numberline {V}Numerical Methods and Simulation}{9}{section*.13}}
\bibdata{QO_ESSAYNotes,essay_refs}
\bibcite{nlo_using_eit}{{1}{1990}{{S.~E.~Harris\ and\ Imamoglu}}{{}}}
\bibcite{eit_review}{{2}{2005}{{Fleischhauer\ \emph  {et~al.}}}{{Fleischhauer, Imamoglu,\ and\ Marangos}}}
\bibcite{slowlight_dyamics}{{3}{2005}{{Huang\ \emph  {et~al.}}}{{Huang, L.~Deng,\ and\ Payne}}}
\bibcite{applications_eit_qi}{{4}{2005}{{R.~G.~Beausoleil}}{{}}}
\bibcite{EIT_prep_energy}{{5}{1995}{{Harris\ and\ Luo}}{{}}}
\bibcite{new_mechanisms_for_laser_cooling}{{6}{1990}{{CohenTannoudji\ and\ Phillips}}{{}}}
\bibcite{numerical_3level_eit_slowlight}{{7}{2011}{{M.-C.~Wu}}{{}}}
\bibstyle{apsrev4-1}
\citation{REVTEX41Control}
\citation{apsrev41Control}
\@writefile{toc}{\contentsline {section}{\numberline {VI}Concluding Remarks}{10}{section*.14}}
\@writefile{toc}{\contentsline {section}{\numberline {}References}{10}{section*.15}}
\newlabel{LastBibItem}{{7}{10}{}{section*.15}{}}
\newlabel{LastPage}{{}{10}{}{}{}}
