\BOOKMARK [0][-]{section*.2}{ Electromagnetically induced transparency \040A review into its concepts and applications }{}% 2
\BOOKMARK [1][-]{section*.1}{Abstract}{section*.2}% 1
\BOOKMARK [1][-]{section*.3}{Introduction}{section*.2}% 3
\BOOKMARK [1][-]{section*.4}{Physical Models}{section*.2}% 4
\BOOKMARK [2][-]{section*.5}{Density Operator and Coherence}{section*.4}% 5
\BOOKMARK [2][-]{section*.6}{Two Level Systems}{section*.4}% 6
\BOOKMARK [2][-]{section*.7}{Three Level Systems}{section*.4}% 7
\BOOKMARK [3][-]{section*.8}{Dark states in -type systems}{section*.7}% 8
\BOOKMARK [3][-]{section*.9}{ Electromagnetically induced transparency in -type systems}{section*.7}% 9
\BOOKMARK [3][-]{section*.10}{ Enhancement of Kerr nonlinearities}{section*.7}% 10
\BOOKMARK [1][-]{section*.11}{ Dark State Adiabatic Preparation}{section*.2}% 11
\BOOKMARK [1][-]{section*.12}{Application to Slow Light}{section*.2}% 12
\BOOKMARK [1][-]{section*.13}{Numerical Methods and Simulation}{section*.2}% 13
\BOOKMARK [1][-]{section*.14}{Concluding Remarks}{section*.2}% 14
\BOOKMARK [1][-]{section*.15}{References}{section*.2}% 15
